{
  "swagger": "2.0",
  "info": {
    "description": "This is a sample Webjet application to search movies",
    "version": "1.0.0",
    "title": "WebJet App"
  },
  "schemes": [
    "http"
  ],
  "host": "localhost",
  "basePath": "/api",
  "consumes": [
    "application/json"
  ],
  "produces": [
    "application/json"
  ],
  "securityDefinitions": {
    "ApiKeyAuth": {
      "type": "apiKey",
      "in": "header",
      "name": "x-app-token"
    }
  },
  "paths": {
    "/movie/{movieId}": {
      "x-swagger-router-controller": "webjet",
      "get": {
        "tags": [
          "movie"
        ],
        "summary": "Finds a movie by id",
        "description": "Search movies with comma separated strings",
        "operationId": "findMovieById",
        "parameters": [
          {
            "name": "x-app-token",
            "in": "header",
            "description": "Access token for calling service",
            "required": true,
            "type": "string"
          },
          {
            "name": "movieId",
            "in": "path",
            "description": "Movie ID",
            "required": true,
            "type": "string"
          }
        ],
        "responses": {
          "200": {
            "description": "successful operation",
            "schema": {
              "$ref": "#/definitions/movie"
            }
          },
          "400": {
            "description": "Invalid ID provided"
          }
        },
        "security": [
          {
            "ApiKeyAuth": []
          }
        ]
      }
    },
    "/movies": {
      "x-swagger-router-controller": "webjet",
      "get": {
        "tags": [
          "movie"
        ],
        "summary": "Finds a movie by id",
        "description": "Search movies with comma separated strings",
        "operationId": "findAllMovies",
        "parameters": [
          {
            "name": "x-app-token",
            "in": "header",
            "description": "Access token for calling service",
            "required": true,
            "type": "string"
          }
        ],
        "responses": {
          "200": {
            "description": "successful operation",
            "schema": {
              "$ref": "#/definitions/movies"
            }
          },
          "400": {
            "description": "Invalid ID provided"
          }
        },
        "security": [
          {
            "ApiKeyAuth": []
          }
        ]
      }
    }
  },
  "definitions": {
    "movie": {
      "type": "object",
      "properties": {
        "id": {
          "type": "string"
        },
        "category": {
          "type": "string"
        },
        "name": {
          "type": "string"
        },
        "rating": {
          "type": "integer"
        }
      }
    },
    "movies": {
      "type": "array",
      "items": {
        "$ref": "#/definitions/movie"
      }
    }
  }
}